<?xml version="1.0" encoding="utf-8"?>
<!-- Generator: Adobe Illustrator 16.0.4, SVG Export Plug-In . SVG Version: 6.00 Build 0)  -->
<!DOCTYPE svg PUBLIC "-//W3C//DTD SVG 1.1//EN" "http://www.w3.org/Graphics/SVG/1.1/DTD/svg11.dtd">
<svg version="1.1" id="Layer_1" xmlns="http://www.w3.org/2000/svg" xmlns:xlink="http://www.w3.org/1999/xlink" x="0px" y="0px"
	 width="720px" height="720px" viewBox="0 0 720 720" enable-background="new 0 0 720 720" xml:space="preserve">
<polygon fill="#FFFFFF" points="68.217,274.882 73.125,275.676 133.463,336.016 134.734,341.064 132.669,346.654 72.965,405.828 
	68.635,407.152 63.438,405.828 2.093,344.483 2.093,340.953 2.093,336.81 62.962,275.676 "/>
<g>
	<g>
		<path d="M188.854,82.639l-1.046-5.707c-4.662,3.896-10.183,6.615-15.792,6.615c-7.518,0-13.51-3.627-13.51-11.326
			c0-9.516,7.607-14.59,29.107-16.492v-3.715c0-5.979-3.709-8.88-9.893-8.88c-5.137,0-10.367,1.359-15.314,3.807l-0.572-3.986
			c5.041-2.174,10.182-3.715,16.078-3.715c9.134,0,14.08,4.44,14.08,12.593v30.807H188.854z M187.614,59.262
			c-18.453,1.903-24.543,5.619-24.543,12.598c0,5.436,4.089,7.973,9.134,7.973c4.755,0,10.562-2.719,15.409-6.797V59.262z"/>
		<path d="M263.818,82.639V53.01c0-6.433-2.948-9.966-9.418-9.966c-4.758,0-9.797,2.629-15.412,7.521v32.074h-4.379V53.01
			c0-6.433-2.945-9.966-9.418-9.966c-4.755,0-9.89,2.629-15.408,7.431v32.164h-4.474V40.052h3.237l1.141,6.165
			c5.329-4.352,10.182-7.069,15.982-7.069c7.04,0,11.036,2.717,12.554,7.702c5.615-4.71,10.657-7.702,16.748-7.702
			c9.227,0,13.318,4.893,13.318,13.319v30.172H263.818z"/>
		<path d="M314.812,61.346H283.23c0,10.875,5.324,18.486,15.312,18.486c5.424,0,11.132-2.719,15.508-6.525l0.666,3.988
			c-4.092,3.533-9.988,6.252-16.365,6.252c-11.792,0-19.688-8.338-19.688-22.201c0-13.59,8.18-22.198,19.025-22.198
			c11.413,0,17.124,9.516,17.124,21.292C314.812,60.713,314.812,60.985,314.812,61.346z M297.688,42.681
			c-8.468,0-13.223,6.252-14.269,15.131h26.635C309.77,49.476,305.487,42.681,297.688,42.681z"/>
		<path d="M355.526,82.639V53.01c0-6.433-3.23-9.966-9.602-9.966c-4.949,0-10.084,2.719-15.696,7.702v31.893h-4.475V40.052h3.231
			l1.145,6.435c5.421-4.531,10.37-7.339,16.27-7.339c9.223,0,13.602,4.984,13.602,13.501v29.99H355.526z"/>
	</g>
	<g>
		<path d="M173.005,112.439h-2.29l-1.254-2.979h-5.834l-1.271,2.979h-2.222l5.433-12.428h2.009L173.005,112.439z M166.536,102.602
			l-2.116,4.938h4.249L166.536,102.602z"/>
		<path d="M181.63,112.439v-1.551c-0.688,0.971-1.657,1.746-3.173,1.746c-2.187,0-4.319-1.746-4.319-4.85
			c0-3.105,2.097-4.848,4.319-4.848c1.531,0,2.502,0.773,3.173,1.639V99.57h2.134v12.869H181.63z M178.969,104.787
			c-1.465,0-2.682,1.131-2.682,2.998c0,1.834,1.234,2.996,2.682,2.996c1.428,0,2.695-1.18,2.695-2.996
			C181.665,105.967,180.397,104.787,178.969,104.787z"/>
		<path d="M193.042,103.131h2.239l-3.808,9.379h-1.923l-3.827-9.379h2.293l2.504,6.84L193.042,103.131z"/>
		<path d="M201.048,110.906c1.04,0,1.778-0.389,2.521-1.111l1.251,1.111c-0.88,1.057-2.097,1.744-3.809,1.744
			c-2.697,0-4.777-1.955-4.777-4.848c0-2.682,1.886-4.865,4.55-4.865c2.963,0,4.46,2.324,4.46,5.023
			c0,0.193-0.017,0.371-0.036,0.582h-6.841C198.615,110.061,199.671,110.906,201.048,110.906z M203.127,107.131
			c-0.14-1.373-0.952-2.451-2.363-2.451c-1.304,0-2.22,1.008-2.414,2.451H203.127z"/>
		<path d="M209.708,112.439h-2.134v-9.309h2.134v1.445c0.599-0.883,1.464-1.639,2.908-1.639c2.1,0,3.315,1.408,3.315,3.578v5.924
			h-2.132v-5.289c0-1.447-0.726-2.275-1.993-2.275c-1.233,0-2.099,0.865-2.099,2.311V112.439z"/>
		<path d="M221.256,109.531c0,0.826,0.425,1.164,1.146,1.164c0.476,0,0.899-0.107,1.321-0.318v1.746
			c-0.528,0.297-1.127,0.475-1.922,0.475c-1.568,0-2.679-0.686-2.679-2.732v-4.9h-1.181v-1.834h1.181v-2.555h2.133v2.555h2.505
			v1.834h-2.505V109.531z"/>
		<path d="M226.125,101.703v-2.027h2.293v2.027H226.125z M226.211,112.439v-9.309h2.136v9.309H226.211z"/>
		<path d="M234.502,112.615c-1.324,0-2.788-0.477-3.951-1.393l0.952-1.447c1.006,0.76,2.1,1.146,3.05,1.146
			c0.919,0,1.447-0.387,1.447-1.002v-0.037c0-0.723-0.989-0.969-2.08-1.305c-1.377-0.387-2.911-0.953-2.911-2.734v-0.033
			c0-1.762,1.464-2.838,3.316-2.838c1.163,0,2.434,0.404,3.42,1.057l-0.846,1.518c-0.899-0.549-1.853-0.883-2.628-0.883
			c-0.829,0-1.304,0.387-1.304,0.936v0.033c0,0.672,1.003,0.953,2.096,1.305c1.357,0.424,2.893,1.043,2.893,2.717v0.035
			C237.957,111.645,236.442,112.615,234.502,112.615z"/>
		<path d="M242.701,109.531c0,0.826,0.424,1.164,1.146,1.164c0.478,0,0.899-0.107,1.323-0.318v1.746
			c-0.528,0.297-1.13,0.475-1.922,0.475c-1.568,0-2.682-0.686-2.682-2.732v-4.9h-1.18v-1.834h1.18v-2.555h2.134v2.555h2.504v1.834
			h-2.504V109.531z"/>
		<path d="M259.313,109.408h-0.07l-3.861-5.785v8.816h-2.134v-12.342h2.311l3.755,5.836l3.755-5.836h2.31v12.342h-2.169v-8.852
			L259.313,109.408z"/>
		<path d="M272.787,110.906c1.039,0,1.781-0.389,2.521-1.111l1.254,1.111c-0.883,1.057-2.1,1.744-3.809,1.744
			c-2.698,0-4.777-1.955-4.777-4.848c0-2.682,1.886-4.865,4.547-4.865c2.962,0,4.46,2.324,4.46,5.023
			c0,0.193-0.017,0.371-0.033,0.582h-6.841C270.355,110.061,271.412,110.906,272.787,110.906z M274.869,107.131
			c-0.144-1.373-0.952-2.451-2.363-2.451c-1.305,0-2.224,1.008-2.417,2.451H274.869z"/>
		<path d="M286.329,112.439v-1.551c-0.688,0.971-1.658,1.746-3.172,1.746c-2.187,0-4.319-1.746-4.319-4.85
			c0-3.105,2.097-4.848,4.319-4.848c1.53,0,2.5,0.773,3.172,1.639V99.57h2.133v12.869H286.329z M283.667,104.787
			c-1.463,0-2.68,1.131-2.68,2.998c0,1.834,1.234,2.996,2.68,2.996c1.428,0,2.695-1.18,2.695-2.996
			C286.362,105.967,285.094,104.787,283.667,104.787z"/>
		<path d="M291.339,101.703v-2.027h2.291v2.027H291.339z M291.426,112.439v-9.309h2.134v9.309H291.426z"/>
		<path d="M300.825,112.65c-2.769,0-4.812-2.17-4.812-4.83c0-2.662,2.043-4.883,4.831-4.883c1.763,0,2.855,0.65,3.719,1.604
			l-1.321,1.426c-0.652-0.686-1.341-1.162-2.417-1.162c-1.552,0-2.679,1.34-2.679,2.98c0,1.676,1.145,3.014,2.785,3.014
			c1.004,0,1.745-0.475,2.414-1.164l1.288,1.271C303.716,111.93,302.64,112.65,300.825,112.65z"/>
		<path d="M312.465,112.439v-1.146c-0.635,0.76-1.604,1.342-3.016,1.342c-1.762,0-3.313-1.006-3.313-2.875v-0.035
			c0-2.012,1.604-2.998,3.771-2.998c1.13,0,1.853,0.16,2.574,0.389v-0.229c0-1.287-0.809-1.992-2.29-1.992
			c-1.043,0-1.818,0.227-2.664,0.582l-0.582-1.713c1.023-0.457,2.029-0.773,3.544-0.773c2.751,0,4.092,1.445,4.092,3.93v5.52
			H312.465z M312.519,108.488c-0.548-0.211-1.307-0.367-2.133-0.367c-1.341,0-2.134,0.545-2.134,1.498v0.035
			c0,0.881,0.793,1.375,1.796,1.375c1.411,0,2.471-0.793,2.471-1.955V108.488z"/>
		<path d="M317.42,112.439V99.57h2.136v12.869H317.42z"/>
		<path d="M170.344,119.717h-6.984v3.209h6.189v1.939h-6.189v3.314h7.071v1.938h-9.237v-12.34h9.15V119.717z"/>
		<path d="M179.197,120.811h2.24l-3.809,9.377h-1.922l-3.825-9.377h2.291l2.504,6.84L179.197,120.811z"/>
		<path d="M188.685,130.117v-1.146c-0.636,0.76-1.604,1.342-3.016,1.342c-1.763,0-3.313-1.004-3.313-2.873v-0.037
			c0-2.008,1.604-2.996,3.771-2.996c1.13,0,1.853,0.158,2.574,0.389v-0.23c0-1.287-0.81-1.992-2.29-1.992
			c-1.043,0-1.818,0.23-2.665,0.582l-0.581-1.709c1.022-0.459,2.029-0.775,3.544-0.775c2.751,0,4.092,1.443,4.092,3.932v5.516
			H188.685z M188.739,126.17c-0.549-0.211-1.308-0.371-2.134-0.371c-1.341,0-2.133,0.547-2.133,1.498v0.035
			c0,0.883,0.792,1.375,1.796,1.375c1.411,0,2.471-0.793,2.471-1.955V126.17z"/>
		<path d="M195.652,130.117h-2.133v-9.307h2.133v1.443c0.599-0.879,1.465-1.639,2.909-1.639c2.1,0,3.316,1.412,3.316,3.578v5.924
			h-2.134v-5.289c0-1.443-0.725-2.273-1.992-2.273c-1.233,0-2.1,0.863-2.1,2.311V130.117z"/>
		<path d="M208.771,132.977c-1.531,0-2.962-0.389-4.159-1.113l0.793-1.605c0.986,0.619,2.046,0.99,3.313,0.99
			c1.905,0,2.945-0.99,2.945-2.859v-0.721c-0.776,1.006-1.746,1.711-3.28,1.711c-2.187,0-4.229-1.605-4.229-4.373
			s2.062-4.391,4.229-4.391c1.571,0,2.541,0.723,3.263,1.586v-1.391h2.134v7.404C213.78,131.512,211.981,132.977,208.771,132.977z
			 M208.949,122.414c-1.481,0-2.646,1.023-2.646,2.574c0,1.553,1.181,2.592,2.646,2.592c1.48,0,2.731-1.039,2.731-2.574
			C211.68,123.438,210.429,122.414,208.949,122.414z"/>
		<path d="M220.922,128.584c1.04,0,1.779-0.389,2.521-1.111l1.251,1.111c-0.88,1.059-2.097,1.748-3.809,1.748
			c-2.697,0-4.777-1.959-4.777-4.852c0-2.678,1.886-4.865,4.55-4.865c2.963,0,4.461,2.328,4.461,5.025
			c0,0.193-0.018,0.371-0.037,0.582h-6.841C218.489,127.738,219.545,128.584,220.922,128.584z M223.001,124.812
			c-0.14-1.375-0.952-2.451-2.363-2.451c-1.304,0-2.22,1.006-2.414,2.451H223.001z"/>
		<path d="M227.572,130.117v-12.869h2.133v12.869H227.572z"/>
		<path d="M232.704,119.383v-2.029h2.29v2.029H232.704z M232.791,130.117v-9.307h2.134v9.307H232.791z"/>
		<path d="M241.079,130.295c-1.32,0-2.785-0.475-3.948-1.395l0.952-1.443c1.004,0.758,2.097,1.146,3.05,1.146
			c0.916,0,1.444-0.389,1.444-1.006v-0.035c0-0.725-0.986-0.969-2.08-1.307c-1.374-0.387-2.908-0.949-2.908-2.73v-0.037
			c0-1.762,1.464-2.838,3.313-2.838c1.163,0,2.434,0.406,3.42,1.059l-0.846,1.516c-0.899-0.547-1.85-0.881-2.628-0.881
			c-0.826,0-1.304,0.389-1.304,0.934v0.037c0,0.668,1.006,0.949,2.1,1.303c1.357,0.422,2.892,1.041,2.892,2.715v0.037
			C244.536,129.326,243.018,130.295,241.079,130.295z"/>
		<path d="M257.779,120.615c2.026,0,3.263,1.287,3.263,3.561v5.941h-2.133v-5.289c0-1.48-0.689-2.273-1.889-2.273
			c-1.164,0-1.993,0.812-1.993,2.311v5.252h-2.133v-5.305c0-1.445-0.706-2.258-1.886-2.258c-1.181,0-1.993,0.883-1.993,2.328v5.234
			h-2.133v-9.307h2.133v1.41c0.599-0.83,1.411-1.605,2.839-1.605c1.341,0,2.273,0.652,2.769,1.639
			C255.381,121.268,256.368,120.615,257.779,120.615z"/>
		<path d="M278.149,117.777h2.133v12.34h-1.818l-6.804-8.779v8.779h-2.134v-12.34h2.01l6.613,8.533V117.777z"/>
		<path d="M287.689,128.584c1.039,0,1.778-0.389,2.521-1.111l1.251,1.111c-0.88,1.059-2.097,1.748-3.809,1.748
			c-2.698,0-4.776-1.959-4.776-4.852c0-2.678,1.885-4.865,4.549-4.865c2.962,0,4.46,2.328,4.46,5.025
			c0,0.193-0.017,0.371-0.036,0.582h-6.841C285.254,127.738,286.311,128.584,287.689,128.584z M289.768,124.812
			c-0.141-1.375-0.952-2.451-2.363-2.451c-1.304,0-2.221,1.006-2.414,2.451H289.768z"/>
		<path d="M296.786,127.209c0,0.83,0.425,1.164,1.147,1.164c0.478,0,0.899-0.104,1.323-0.318v1.746
			c-0.528,0.301-1.13,0.477-1.922,0.477c-1.568,0-2.682-0.688-2.682-2.734v-4.9h-1.181v-1.832h1.181v-2.559h2.133v2.559h2.505v1.832
			h-2.505V127.209z"/>
		<path d="M310.858,127.191l1.905-6.381h2.134l-3.05,9.377h-1.905l-2.08-6.361l-2.1,6.361h-1.902l-3.016-9.377h2.187l1.869,6.381
			l2.062-6.418h1.815L310.858,127.191z"/>
		<path d="M320.964,130.332c-2.839,0-4.936-2.17-4.936-4.832c0-2.682,2.114-4.885,4.972-4.885c2.855,0,4.955,2.168,4.955,4.848
			C325.956,128.125,323.839,130.332,320.964,130.332z M320.964,122.484c-1.709,0-2.802,1.342-2.802,2.979
			c0,1.658,1.18,3.016,2.838,3.016c1.729,0,2.819-1.34,2.819-2.979C323.82,123.842,322.639,122.484,320.964,122.484z"/>
		<path d="M330.436,130.117h-2.134v-9.307h2.134v2.096c0.581-1.391,1.657-2.344,3.296-2.273v2.256h-0.123
			c-1.869,0-3.173,1.217-3.173,3.686V130.117z"/>
		<path d="M344.474,130.117h-2.471l-2.802-4.018l-1.305,1.357v2.66h-2.133v-12.869h2.133v7.688l3.862-4.125h2.591l-3.704,3.791
			L344.474,130.117z"/>
	</g>
	<g>
		<g>
			<path fill="#84C6D8" d="M132.949,59.775L76.657,3.482C74.412,1.235,71.413,0,68.22,0c-3.196,0-6.191,1.235-8.437,3.482
				L3.488,59.775c-4.651,4.65-4.651,12.223,0,16.873l56.295,56.293c2.246,2.246,5.241,3.484,8.437,3.484
				c3.192,0,6.191-1.238,8.437-3.484l56.292-56.293c2.249-2.244,3.485-5.242,3.485-8.436
				C136.434,65.017,135.198,62.021,132.949,59.775z M130.138,73.838l-56.292,56.295c-1.495,1.494-3.494,2.318-5.626,2.318
				c-2.133,0-4.131-0.824-5.627-2.318L6.299,73.838c-3.103-3.102-3.103-8.149,0-11.252L62.593,6.292
				c1.496-1.495,3.494-2.319,5.627-2.319c2.133,0,4.131,0.824,5.626,2.319l56.292,56.293c1.495,1.495,2.319,3.493,2.319,5.627
				C132.458,70.346,131.633,72.344,130.138,73.838z"/>
			<path fill="#84C6D8" d="M99.109,37.323c-0.775-0.776-2.035-0.776-2.811,0L68.22,65.402L40.142,37.322
				c-0.776-0.775-2.035-0.775-2.811,0c-0.776,0.777-0.776,2.035,0,2.811L65.41,68.213L37.331,96.291
				c-0.776,0.775-0.776,2.035,0,2.811c0.388,0.389,0.896,0.582,1.405,0.582s1.018-0.193,1.405-0.582L68.22,71.023l28.078,28.078
				c0.388,0.389,0.896,0.582,1.405,0.582s1.018-0.193,1.405-0.582c0.776-0.775,0.776-2.035,0-2.811L71.03,68.213l28.079-28.079
				C99.885,39.358,99.885,38.1,99.109,37.323z"/>
		</g>
		<g>
			<path d="M68.633,91.045c-6.312,0-11.43,5.119-11.43,11.432s5.117,11.432,11.43,11.432c6.312,0,11.433-5.119,11.433-11.432
				S74.945,91.045,68.633,91.045z M74.993,104.729c0,0.396,0.382,1.67,0.896,2.24c-1.512,2.428-4.196,4.053-7.256,4.053
				c-1.875,0-3.609-0.607-5.017-1.637c0.124-0.16,0.146-0.426,0.112-0.748c-0.144-1.422-0.928-3.184-1.903-4.264
				c-0.41-0.455-1.045-0.707-1.678-0.891c-0.04-0.33-0.062-0.666-0.062-1.006c0-2.986,1.543-5.617,3.867-7.146
				c-0.098,0.445-0.157,0.629,0.256,0.959c0.843,0.672,0.877,1.627,0.93,2.631c0.037,0.689,1.026,1.332,1.546,1.68
				c0.309,0.203,0.388-0.588,0.722-0.562c0.542,0.035,1.045,0.047,1.549,0.277c-0.869,1.102,0.719,2.932,0.719,4.1
				c0,0.455-1.197,1.92-0.857,2.088c0.7,0.35,1.211-0.238,1.585-0.84c0.706-1.141,2.445-2.309,1.961-3.758
				c-0.61-1.822-2.889-0.869-3.409-2.525c0.745-0.174,1.489-0.35,2.234-0.523c0.518-0.123,0.891-0.873,1.22-1.273
				c0.087-0.242,0.096-0.539,0.144-0.791c-0.374-0.062-0.925-0.275-1.295-0.217c-0.456,0.072-0.919,0.777-1.439,0.65
				c-0.171-0.045,0.688-1.625,0.649-1.801c-0.202-0.93-2.316-1.172-3.091-0.936c-0.79,0.242-0.824,0.934-1.642,0.412
				c-0.166-0.105-0.284-0.215-0.379-0.314c1.009-0.42,2.117-0.656,3.277-0.656c3.906,0,7.2,2.641,8.215,6.225
				c-0.208,0.559-0.599,0.99-0.944,1.479c-0.259,0.363-0.725,0.793-0.896,1.191C74.793,103.322,74.993,104.18,74.993,104.729z"/>
			<path d="M45.282,61.645c0.837-3.244,0.571-5.393-0.818-6.572c-0.857-0.725-2.071-0.961-3.519-0.697
				c-0.32-0.227-0.7-0.349-1.093-0.349c-1.051,0-1.903,0.854-1.903,1.905s0.852,1.906,1.903,1.906c0.776,0,1.456-0.463,1.751-1.158
				c0.599-0.079,1.062-0.003,1.321,0.217c0.576,0.488,0.596,2.034,0.056,4.118c-0.983,3.259-2.875,5.171-4.452,6.696
				c-1.616-2.409-4.101-4.25-6.928-5.128c-0.076-1.741,0.042-3.557,0.332-5.147c0.168-0.925,0.478-1.537,0.849-1.681
				c0.177-0.071,0.433-0.062,0.734,0.025c0.171,0.874,0.947,1.538,1.869,1.538c1.051,0,1.906-0.855,1.906-1.903
				c0-1.052-0.854-1.905-1.906-1.905c-0.244,0-0.483,0.047-0.714,0.143c-0.989-0.392-1.931-0.438-2.749-0.125
				c-1.214,0.471-1.998,1.642-2.335,3.482c-0.295,1.629-0.433,3.377-0.402,5.086c-4.463-0.425-8.383,1.93-10.339,6.199
				c-1.458,3.586-1.245,6.748,0.602,8.91c1.324,1.547,3.429,2.436,5.774,2.436c0.72,0,1.448-0.086,2.164-0.252
				c3.294-0.777,5.857-3.156,6.9-6.395c1.295-0.414,2.389-0.908,3.381-1.525c0.166,0.789,0.32,2.006,0.41,2.766
				c-1.717,0.65-2.883,2.314-2.883,4.178c0,2.465,2.004,4.469,4.466,4.469c2.467,0,4.471-2.004,4.471-4.469
				c0-2.197-1.557-4.023-3.682-4.398c-0.107-0.879-0.396-2.967-0.773-4.104C41.471,68.281,44.014,65.844,45.282,61.645z
				 M36.696,69.26c-0.834,0.559-1.771,1.006-2.889,1.381c-0.933-1.48-1.585-3.299-1.939-5.423
				C33.863,66.06,35.577,67.494,36.696,69.26z M32.017,72.256c-0.784,2.439-2.709,4.229-5.18,4.812
				c-2.181,0.51-4.423-0.059-5.581-1.416c-1.234-1.443-1.31-3.732-0.216-6.423c1.425-3.096,3.934-4.799,7.067-4.799
				c0.405,0,0.818,0.03,1.237,0.087C29.701,67.531,30.62,70.195,32.017,72.256z"/>
			<path d="M112.987,63.509c-0.028-5.034-3.035-5.579-4.333-5.579c-1.169,0-2.316,0.412-3.423,0.811
				c-0.919,0.331-1.863,0.671-2.526,0.671c-0.664,0-1.608-0.34-2.518-0.666c-1.116-0.403-2.26-0.815-3.432-0.815
				c-1.298,0-4.305,0.545-4.333,5.579c-0.304,4.46,1.314,11.298,4.232,14.438c1.425,1.539,2.869,1.861,3.828,1.861
				c1.029,0,1.737-0.359,2.223-0.916c0.486,0.557,1.194,0.916,2.223,0.916c0.958,0,2.403-0.322,3.831-1.861
				C111.672,74.807,113.291,67.969,112.987,63.509z M106.427,75.789c-0.489,0.533-0.972,0.814-1.428,0.844
				c-0.191-0.346-0.194-1.623-0.197-2.48c-0.002-2.225-0.008-4.994-2.099-4.994c-2.088,0-2.097,2.77-2.1,4.994
				c-0.003,0.857-0.005,2.135-0.197,2.48c-0.455-0.029-0.936-0.311-1.428-0.844c-2.043-2.201-3.69-8.102-3.386-12.14l0.002-0.048
				c0-2.498,0.753-2.498,1.158-2.498c0.613,0,1.456,0.303,2.35,0.623c0.447,0.164,0.924,0.332,1.411,0.479
				c0.882,0.373,3.033,1.134,5.891,0.989c0.433,0,0.779-0.281,0.779-0.627s-0.346-0.626-0.779-0.626
				c-0.239,0-0.464-0.004-0.683-0.008c0.196-0.068,0.393-0.138,0.584-0.207c0.891-0.32,1.734-0.623,2.347-0.623
				c0.405,0,1.161,0,1.161,2.498v0.048C110.118,67.688,108.471,73.588,106.427,75.789z"/>
			<path d="M78.532,36.459c-0.256-0.306-1.259-1.907-1.45-2.341c-0.208-0.512-0.933-5.15-0.736-6.841
				c0.112-0.951,0.374-4.165-0.914-5.584c-0.483-0.531-1.11-0.813-1.815-0.813c-0.318,0-0.697,0.096-1.181,0.298
				c-1.686-2.216-2.591-2.772-4.345-2.772l-0.219,0.007c-0.27-0.024-0.587-0.244-0.922-0.478c-0.514-0.355-1.096-0.759-1.86-0.759
				c-0.323,0-0.652,0.074-0.928,0.204c-0.554,0.195-0.837,0.712-1.09,1.169c-0.16,0.287-0.337,0.613-0.559,0.703
				c-0.554,0.288-0.765,0.843-0.936,1.289c-0.073,0.2-0.144,0.387-0.228,0.499c-0.034,0.046-0.169,0.135-0.278,0.208
				c-0.486,0.317-1.298,0.852-1.369,2.355c-0.082,1.765,0.871,5.663,1.796,8.733c0.455,1.514,0.885,2.944,1.051,3.857
				c-0.014,0.222-0.489,0.953-0.804,1.437c-0.522,0.812-1.121,1.729-1.292,2.509c-0.36,1.606-0.25,3.241,0.3,4.483
				c0.644,1.456,1.816,2.291,3.21,2.291c0.817,0,2.068-0.311,3.519-1.719c0.141,0.188,0.267,0.4,0.396,0.621
				c0.262,0.433,0.554,0.923,1.003,1.297c0.236,0.196,0.526,0.3,0.837,0.3c0.621,0,1.265,0,5.424-5.126
				c0.584-0.721,1.183-1.391,1.782-2.06C78.509,38.453,79.38,37.479,78.532,36.459z M73.512,22.632
				c0.5-0.183,1.144,0.323,1.439,1.129c0.295,0.81,0.132,1.61-0.368,1.796C74.085,25.74,72.236,23.094,73.512,22.632z
				 M64.499,18.582c0.388-0.334,0.972-0.295,1.312,0.096c0.334,0.389,0.186,0.72-0.203,1.057c-0.388,0.336-0.868,0.547-1.206,0.16
				C64.066,19.503,64.111,18.916,64.499,18.582z M62.807,22.013c-0.248-0.475-0.062-1.061,0.41-1.308
				c0.475-0.249,1.062-0.063,1.31,0.412c0.248,0.475,0.014,0.776-0.461,1.023C63.591,22.387,63.057,22.487,62.807,22.013z
				 M69.189,38.207c-1.875-1.937-1.484-3.403-2.923-6.691c-1.284-2.937-2.535-5.781-2.661-6.029c-0.27-0.524,0.548-1.655,1.11-0.593
				c0.562,1.065,1.554,3.183,2.305,4.182c0.75,1.002,0.775,0.376,0.669-0.304c-0.107-0.677-2.395-5.138-2.833-6.013
				c-0.436-0.875,0.914-1.252,1.225-0.687c0.312,0.562,2.566,4.629,3.193,5.753c0.624,1.125,0.961,0.124,0.649-0.499
				c-0.312-0.625-3.128-5.819-3.628-6.727c-0.5-0.911,0.905-1.279,1.34-0.655c0.438,0.624,2.878,5.191,3.505,6.38
				c0.5,0.938,0.927,0.125,0.677-0.377c-0.25-0.499-2.001-3.69-2.563-4.94c-0.565-1.251,0.5-1.062,0.812-0.562
				c0.312,0.5,3.406,5.924,3.406,5.924c1.627,2.251,1.785,7.835,1.785,7.835S69.94,38.772,69.189,38.207z"/>
		</g>
	</g>
</g>
<g>
	<g>
		<path fill="#FFFFFF" d="M188.854,219.064l-1.046-5.707c-4.662,3.896-10.183,6.615-15.792,6.615c-7.518,0-13.51-3.627-13.51-11.326
			c0-9.516,7.607-14.59,29.107-16.492v-3.715c0-5.979-3.709-8.88-9.893-8.88c-5.137,0-10.367,1.358-15.314,3.807l-0.572-3.986
			c5.041-2.174,10.182-3.716,16.078-3.716c9.134,0,14.08,4.441,14.08,12.594v30.807H188.854z M187.614,195.688
			c-18.453,1.903-24.543,5.619-24.543,12.598c0,5.436,4.089,7.973,9.134,7.973c4.755,0,10.562-2.719,15.409-6.797V195.688z"/>
		<path fill="#FFFFFF" d="M263.818,219.064v-29.629c0-6.434-2.948-9.966-9.418-9.966c-4.758,0-9.797,2.63-15.412,7.521v32.074
			h-4.379v-29.629c0-6.434-2.945-9.966-9.418-9.966c-4.755,0-9.89,2.63-15.408,7.431v32.164h-4.474v-42.586h3.237l1.141,6.164
			c5.329-4.352,10.182-7.069,15.982-7.069c7.04,0,11.036,2.718,12.554,7.702c5.615-4.711,10.657-7.702,16.748-7.702
			c9.227,0,13.318,4.893,13.318,13.319v30.172H263.818z"/>
		<path fill="#FFFFFF" d="M314.812,197.771H283.23c0,10.875,5.324,18.486,15.312,18.486c5.424,0,11.132-2.719,15.508-6.525
			l0.666,3.988c-4.092,3.533-9.988,6.252-16.365,6.252c-11.792,0-19.688-8.338-19.688-22.201c0-13.59,8.18-22.198,19.025-22.198
			c11.413,0,17.124,9.517,17.124,21.292C314.812,197.139,314.812,197.411,314.812,197.771z M297.688,179.107
			c-8.468,0-13.223,6.252-14.269,15.131h26.635C309.77,185.901,305.487,179.107,297.688,179.107z"/>
		<path fill="#FFFFFF" d="M355.526,219.064v-29.629c0-6.434-3.23-9.966-9.602-9.966c-4.949,0-10.084,2.72-15.696,7.702v31.893
			h-4.475v-42.586h3.231l1.145,6.434c5.421-4.53,10.37-7.339,16.27-7.339c9.223,0,13.602,4.983,13.602,13.501v29.99H355.526z"/>
	</g>
	<g>
		<path fill="#FFFFFF" d="M173.005,248.865h-2.29l-1.254-2.979h-5.834l-1.271,2.979h-2.222l5.433-12.428h2.009L173.005,248.865z
			 M166.536,239.027l-2.116,4.938h4.249L166.536,239.027z"/>
		<path fill="#FFFFFF" d="M181.63,248.865v-1.551c-0.688,0.971-1.657,1.746-3.173,1.746c-2.187,0-4.319-1.746-4.319-4.85
			c0-3.105,2.097-4.848,4.319-4.848c1.531,0,2.502,0.773,3.173,1.639v-5.006h2.134v12.869H181.63z M178.969,241.213
			c-1.465,0-2.682,1.131-2.682,2.998c0,1.834,1.234,2.996,2.682,2.996c1.428,0,2.695-1.18,2.695-2.996
			C181.665,242.393,180.397,241.213,178.969,241.213z"/>
		<path fill="#FFFFFF" d="M193.042,239.557h2.239l-3.808,9.379h-1.923l-3.827-9.379h2.293l2.504,6.84L193.042,239.557z"/>
		<path fill="#FFFFFF" d="M201.048,247.332c1.04,0,1.778-0.389,2.521-1.111l1.251,1.111c-0.88,1.057-2.097,1.744-3.809,1.744
			c-2.697,0-4.777-1.955-4.777-4.848c0-2.682,1.886-4.865,4.55-4.865c2.963,0,4.46,2.324,4.46,5.023
			c0,0.193-0.017,0.371-0.036,0.582h-6.841C198.615,246.486,199.671,247.332,201.048,247.332z M203.127,243.557
			c-0.14-1.373-0.952-2.451-2.363-2.451c-1.304,0-2.22,1.008-2.414,2.451H203.127z"/>
		<path fill="#FFFFFF" d="M209.708,248.865h-2.134v-9.309h2.134v1.445c0.599-0.883,1.464-1.639,2.908-1.639
			c2.1,0,3.315,1.408,3.315,3.578v5.924h-2.132v-5.289c0-1.447-0.726-2.275-1.993-2.275c-1.233,0-2.099,0.865-2.099,2.311V248.865z"
			/>
		<path fill="#FFFFFF" d="M221.256,245.957c0,0.826,0.425,1.164,1.146,1.164c0.476,0,0.899-0.107,1.321-0.318v1.746
			c-0.528,0.297-1.127,0.475-1.922,0.475c-1.568,0-2.679-0.686-2.679-2.732v-4.9h-1.181v-1.834h1.181v-2.555h2.133v2.555h2.505
			v1.834h-2.505V245.957z"/>
		<path fill="#FFFFFF" d="M226.125,238.129v-2.027h2.293v2.027H226.125z M226.211,248.865v-9.309h2.136v9.309H226.211z"/>
		<path fill="#FFFFFF" d="M234.502,249.041c-1.324,0-2.788-0.477-3.951-1.393l0.952-1.447c1.006,0.76,2.1,1.146,3.05,1.146
			c0.919,0,1.447-0.387,1.447-1.002v-0.037c0-0.723-0.989-0.969-2.08-1.305c-1.377-0.387-2.911-0.953-2.911-2.734v-0.033
			c0-1.762,1.464-2.838,3.316-2.838c1.163,0,2.434,0.404,3.42,1.057l-0.846,1.518c-0.899-0.549-1.853-0.883-2.628-0.883
			c-0.829,0-1.304,0.387-1.304,0.936v0.033c0,0.672,1.003,0.953,2.096,1.305c1.357,0.424,2.893,1.043,2.893,2.717v0.035
			C237.957,248.07,236.442,249.041,234.502,249.041z"/>
		<path fill="#FFFFFF" d="M242.701,245.957c0,0.826,0.424,1.164,1.146,1.164c0.478,0,0.899-0.107,1.323-0.318v1.746
			c-0.528,0.297-1.13,0.475-1.922,0.475c-1.568,0-2.682-0.686-2.682-2.732v-4.9h-1.18v-1.834h1.18v-2.555h2.134v2.555h2.504v1.834
			h-2.504V245.957z"/>
		<path fill="#FFFFFF" d="M259.313,245.834h-0.07l-3.861-5.785v8.816h-2.134v-12.342h2.311l3.755,5.836l3.755-5.836h2.31v12.342
			h-2.169v-8.852L259.313,245.834z"/>
		<path fill="#FFFFFF" d="M272.787,247.332c1.039,0,1.781-0.389,2.521-1.111l1.254,1.111c-0.883,1.057-2.1,1.744-3.809,1.744
			c-2.698,0-4.777-1.955-4.777-4.848c0-2.682,1.886-4.865,4.547-4.865c2.962,0,4.46,2.324,4.46,5.023
			c0,0.193-0.017,0.371-0.033,0.582h-6.841C270.355,246.486,271.412,247.332,272.787,247.332z M274.869,243.557
			c-0.144-1.373-0.952-2.451-2.363-2.451c-1.305,0-2.224,1.008-2.417,2.451H274.869z"/>
		<path fill="#FFFFFF" d="M286.329,248.865v-1.551c-0.688,0.971-1.658,1.746-3.172,1.746c-2.187,0-4.319-1.746-4.319-4.85
			c0-3.105,2.097-4.848,4.319-4.848c1.53,0,2.5,0.773,3.172,1.639v-5.006h2.133v12.869H286.329z M283.667,241.213
			c-1.463,0-2.68,1.131-2.68,2.998c0,1.834,1.234,2.996,2.68,2.996c1.428,0,2.695-1.18,2.695-2.996
			C286.362,242.393,285.094,241.213,283.667,241.213z"/>
		<path fill="#FFFFFF" d="M291.339,238.129v-2.027h2.291v2.027H291.339z M291.426,248.865v-9.309h2.134v9.309H291.426z"/>
		<path fill="#FFFFFF" d="M300.825,249.076c-2.769,0-4.812-2.17-4.812-4.83c0-2.662,2.043-4.883,4.831-4.883
			c1.763,0,2.855,0.65,3.719,1.604l-1.321,1.426c-0.652-0.686-1.341-1.162-2.417-1.162c-1.552,0-2.679,1.34-2.679,2.98
			c0,1.676,1.145,3.014,2.785,3.014c1.004,0,1.745-0.475,2.414-1.164l1.288,1.271C303.716,248.355,302.64,249.076,300.825,249.076z"
			/>
		<path fill="#FFFFFF" d="M312.465,248.865v-1.146c-0.635,0.76-1.604,1.342-3.016,1.342c-1.762,0-3.313-1.006-3.313-2.875v-0.035
			c0-2.012,1.604-2.998,3.771-2.998c1.13,0,1.853,0.16,2.574,0.389v-0.229c0-1.287-0.809-1.992-2.29-1.992
			c-1.043,0-1.818,0.227-2.664,0.582l-0.582-1.713c1.023-0.457,2.029-0.773,3.544-0.773c2.751,0,4.092,1.445,4.092,3.93v5.52
			H312.465z M312.519,244.914c-0.548-0.211-1.307-0.367-2.133-0.367c-1.341,0-2.134,0.545-2.134,1.498v0.035
			c0,0.881,0.793,1.375,1.796,1.375c1.411,0,2.471-0.793,2.471-1.955V244.914z"/>
		<path fill="#FFFFFF" d="M317.42,248.865v-12.869h2.136v12.869H317.42z"/>
		<path fill="#FFFFFF" d="M170.344,256.143h-6.984v3.209h6.189v1.939h-6.189v3.314h7.071v1.938h-9.237v-12.34h9.15V256.143z"/>
		<path fill="#FFFFFF" d="M179.197,257.236h2.24l-3.809,9.377h-1.922l-3.825-9.377h2.291l2.504,6.84L179.197,257.236z"/>
		<path fill="#FFFFFF" d="M188.685,266.543v-1.146c-0.636,0.76-1.604,1.342-3.016,1.342c-1.763,0-3.313-1.004-3.313-2.873v-0.037
			c0-2.008,1.604-2.996,3.771-2.996c1.13,0,1.853,0.158,2.574,0.389v-0.23c0-1.287-0.81-1.992-2.29-1.992
			c-1.043,0-1.818,0.23-2.665,0.582l-0.581-1.709c1.022-0.459,2.029-0.775,3.544-0.775c2.751,0,4.092,1.443,4.092,3.932v5.516
			H188.685z M188.739,262.596c-0.549-0.211-1.308-0.371-2.134-0.371c-1.341,0-2.133,0.547-2.133,1.498v0.035
			c0,0.883,0.792,1.375,1.796,1.375c1.411,0,2.471-0.793,2.471-1.955V262.596z"/>
		<path fill="#FFFFFF" d="M195.652,266.543h-2.133v-9.307h2.133v1.443c0.599-0.879,1.465-1.639,2.909-1.639
			c2.1,0,3.316,1.412,3.316,3.578v5.924h-2.134v-5.289c0-1.443-0.725-2.273-1.992-2.273c-1.233,0-2.1,0.863-2.1,2.311V266.543z"/>
		<path fill="#FFFFFF" d="M208.771,269.402c-1.531,0-2.962-0.389-4.159-1.113l0.793-1.605c0.986,0.619,2.046,0.99,3.313,0.99
			c1.905,0,2.945-0.99,2.945-2.859v-0.721c-0.776,1.006-1.746,1.711-3.28,1.711c-2.187,0-4.229-1.605-4.229-4.373
			s2.062-4.391,4.229-4.391c1.571,0,2.541,0.723,3.263,1.586v-1.391h2.134v7.404C213.78,267.938,211.981,269.402,208.771,269.402z
			 M208.949,258.84c-1.481,0-2.646,1.023-2.646,2.574c0,1.553,1.181,2.592,2.646,2.592c1.48,0,2.731-1.039,2.731-2.574
			C211.68,259.863,210.429,258.84,208.949,258.84z"/>
		<path fill="#FFFFFF" d="M220.922,265.01c1.04,0,1.779-0.389,2.521-1.111l1.251,1.111c-0.88,1.059-2.097,1.748-3.809,1.748
			c-2.697,0-4.777-1.959-4.777-4.852c0-2.678,1.886-4.865,4.55-4.865c2.963,0,4.461,2.328,4.461,5.025
			c0,0.193-0.018,0.371-0.037,0.582h-6.841C218.489,264.164,219.545,265.01,220.922,265.01z M223.001,261.238
			c-0.14-1.375-0.952-2.451-2.363-2.451c-1.304,0-2.22,1.006-2.414,2.451H223.001z"/>
		<path fill="#FFFFFF" d="M227.572,266.543v-12.869h2.133v12.869H227.572z"/>
		<path fill="#FFFFFF" d="M232.704,255.809v-2.029h2.29v2.029H232.704z M232.791,266.543v-9.307h2.134v9.307H232.791z"/>
		<path fill="#FFFFFF" d="M241.079,266.721c-1.32,0-2.785-0.475-3.948-1.395l0.952-1.443c1.004,0.758,2.097,1.146,3.05,1.146
			c0.916,0,1.444-0.389,1.444-1.006v-0.035c0-0.725-0.986-0.969-2.08-1.307c-1.374-0.387-2.908-0.949-2.908-2.73v-0.037
			c0-1.762,1.464-2.838,3.313-2.838c1.163,0,2.434,0.406,3.42,1.059l-0.846,1.516c-0.899-0.547-1.85-0.881-2.628-0.881
			c-0.826,0-1.304,0.389-1.304,0.934v0.037c0,0.668,1.006,0.949,2.1,1.303c1.357,0.422,2.892,1.041,2.892,2.715v0.037
			C244.536,265.752,243.018,266.721,241.079,266.721z"/>
		<path fill="#FFFFFF" d="M257.779,257.041c2.026,0,3.263,1.287,3.263,3.561v5.941h-2.133v-5.289c0-1.48-0.689-2.273-1.889-2.273
			c-1.164,0-1.993,0.812-1.993,2.311v5.252h-2.133v-5.305c0-1.445-0.706-2.258-1.886-2.258c-1.181,0-1.993,0.883-1.993,2.328v5.234
			h-2.133v-9.307h2.133v1.41c0.599-0.83,1.411-1.605,2.839-1.605c1.341,0,2.273,0.652,2.769,1.639
			C255.381,257.693,256.368,257.041,257.779,257.041z"/>
		<path fill="#FFFFFF" d="M278.149,254.203h2.133v12.34h-1.818l-6.804-8.779v8.779h-2.134v-12.34h2.01l6.613,8.533V254.203z"/>
		<path fill="#FFFFFF" d="M287.689,265.01c1.039,0,1.778-0.389,2.521-1.111l1.251,1.111c-0.88,1.059-2.097,1.748-3.809,1.748
			c-2.698,0-4.776-1.959-4.776-4.852c0-2.678,1.885-4.865,4.549-4.865c2.962,0,4.46,2.328,4.46,5.025
			c0,0.193-0.017,0.371-0.036,0.582h-6.841C285.254,264.164,286.311,265.01,287.689,265.01z M289.768,261.238
			c-0.141-1.375-0.952-2.451-2.363-2.451c-1.304,0-2.221,1.006-2.414,2.451H289.768z"/>
		<path fill="#FFFFFF" d="M296.786,263.635c0,0.83,0.425,1.164,1.147,1.164c0.478,0,0.899-0.104,1.323-0.318v1.746
			c-0.528,0.301-1.13,0.477-1.922,0.477c-1.568,0-2.682-0.688-2.682-2.734v-4.9h-1.181v-1.832h1.181v-2.559h2.133v2.559h2.505v1.832
			h-2.505V263.635z"/>
		<path fill="#FFFFFF" d="M310.858,263.617l1.905-6.381h2.134l-3.05,9.377h-1.905l-2.08-6.361l-2.1,6.361h-1.902l-3.016-9.377h2.187
			l1.869,6.381l2.062-6.418h1.815L310.858,263.617z"/>
		<path fill="#FFFFFF" d="M320.964,266.758c-2.839,0-4.936-2.17-4.936-4.832c0-2.682,2.114-4.885,4.972-4.885
			c2.855,0,4.955,2.168,4.955,4.848C325.956,264.551,323.839,266.758,320.964,266.758z M320.964,258.91
			c-1.709,0-2.802,1.342-2.802,2.979c0,1.658,1.18,3.016,2.838,3.016c1.729,0,2.819-1.34,2.819-2.979
			C323.82,260.268,322.639,258.91,320.964,258.91z"/>
		<path fill="#FFFFFF" d="M330.436,266.543h-2.134v-9.307h2.134v2.096c0.581-1.391,1.657-2.344,3.296-2.273v2.256h-0.123
			c-1.869,0-3.173,1.217-3.173,3.686V266.543z"/>
		<path fill="#FFFFFF" d="M344.474,266.543h-2.471l-2.802-4.018l-1.305,1.357v2.66h-2.133v-12.869h2.133v7.688l3.862-4.125h2.591
			l-3.704,3.791L344.474,266.543z"/>
	</g>
	<g>
		<g>
			<path fill="#FFFFFF" d="M132.949,196.201l-56.292-56.293c-2.245-2.248-5.244-3.482-8.437-3.482c-3.196,0-6.191,1.234-8.437,3.482
				L3.488,196.201c-4.651,4.65-4.651,12.223,0,16.873l56.295,56.293c2.246,2.246,5.241,3.484,8.437,3.484
				c3.192,0,6.191-1.238,8.437-3.484l56.292-56.293c2.249-2.244,3.485-5.242,3.485-8.436
				C136.434,201.442,135.198,198.447,132.949,196.201z M130.138,210.264l-56.292,56.295c-1.495,1.494-3.494,2.318-5.626,2.318
				c-2.133,0-4.131-0.824-5.627-2.318L6.299,210.264c-3.103-3.102-3.103-8.149,0-11.252l56.294-56.293
				c1.496-1.496,3.494-2.319,5.627-2.319c2.133,0,4.131,0.823,5.626,2.319l56.292,56.293c1.495,1.495,2.319,3.493,2.319,5.627
				C132.458,206.771,131.633,208.77,130.138,210.264z"/>
			<path fill="#FFFFFF" d="M99.109,173.749c-0.775-0.776-2.035-0.776-2.811,0L68.22,201.828l-28.079-28.08
				c-0.776-0.775-2.035-0.775-2.811,0c-0.776,0.777-0.776,2.034,0,2.811l28.079,28.08l-28.079,28.078
				c-0.776,0.775-0.776,2.035,0,2.811c0.388,0.389,0.896,0.582,1.405,0.582s1.018-0.193,1.405-0.582l28.079-28.078l28.078,28.078
				c0.388,0.389,0.896,0.582,1.405,0.582s1.018-0.193,1.405-0.582c0.776-0.775,0.776-2.035,0-2.811L71.03,204.639l28.079-28.079
				C99.885,175.783,99.885,174.525,99.109,173.749z"/>
		</g>
		<g>
			<path fill="#FFFFFF" d="M68.633,227.471c-6.312,0-11.43,5.119-11.43,11.432s5.117,11.432,11.43,11.432
				c6.312,0,11.433-5.119,11.433-11.432S74.945,227.471,68.633,227.471z M74.993,241.154c0,0.396,0.382,1.67,0.896,2.24
				c-1.512,2.428-4.196,4.053-7.256,4.053c-1.875,0-3.609-0.607-5.017-1.637c0.124-0.16,0.146-0.426,0.112-0.748
				c-0.144-1.422-0.928-3.184-1.903-4.264c-0.41-0.455-1.045-0.707-1.678-0.891c-0.04-0.33-0.062-0.666-0.062-1.006
				c0-2.986,1.543-5.617,3.867-7.146c-0.098,0.445-0.157,0.629,0.256,0.959c0.843,0.672,0.877,1.627,0.93,2.631
				c0.037,0.689,1.026,1.332,1.546,1.68c0.309,0.203,0.388-0.588,0.722-0.562c0.542,0.035,1.045,0.047,1.549,0.277
				c-0.869,1.102,0.719,2.932,0.719,4.1c0,0.455-1.197,1.92-0.857,2.088c0.7,0.35,1.211-0.238,1.585-0.84
				c0.706-1.141,2.445-2.309,1.961-3.758c-0.61-1.822-2.889-0.869-3.409-2.525c0.745-0.174,1.489-0.35,2.234-0.523
				c0.518-0.123,0.891-0.873,1.22-1.273c0.087-0.242,0.096-0.539,0.144-0.791c-0.374-0.062-0.925-0.275-1.295-0.217
				c-0.456,0.072-0.919,0.777-1.439,0.65c-0.171-0.045,0.688-1.625,0.649-1.801c-0.202-0.93-2.316-1.172-3.091-0.936
				c-0.79,0.242-0.824,0.934-1.642,0.412c-0.166-0.105-0.284-0.215-0.379-0.314c1.009-0.42,2.117-0.656,3.277-0.656
				c3.906,0,7.2,2.641,8.215,6.225c-0.208,0.559-0.599,0.99-0.944,1.479c-0.259,0.363-0.725,0.793-0.896,1.191
				C74.793,239.748,74.993,240.605,74.993,241.154z"/>
			<path fill="#FFFFFF" d="M45.282,198.07c0.837-3.244,0.571-5.393-0.818-6.572c-0.857-0.725-2.071-0.961-3.519-0.697
				c-0.32-0.227-0.7-0.349-1.093-0.349c-1.051,0-1.903,0.854-1.903,1.905s0.852,1.906,1.903,1.906c0.776,0,1.456-0.463,1.751-1.158
				c0.599-0.079,1.062-0.003,1.321,0.217c0.576,0.488,0.596,2.034,0.056,4.118c-0.983,3.259-2.875,5.171-4.452,6.696
				c-1.616-2.409-4.101-4.25-6.928-5.128c-0.076-1.741,0.042-3.557,0.332-5.147c0.168-0.925,0.478-1.537,0.849-1.681
				c0.177-0.071,0.433-0.062,0.734,0.025c0.171,0.874,0.947,1.538,1.869,1.538c1.051,0,1.906-0.855,1.906-1.903
				c0-1.052-0.854-1.905-1.906-1.905c-0.244,0-0.483,0.047-0.714,0.143c-0.989-0.392-1.931-0.438-2.749-0.125
				c-1.214,0.471-1.998,1.642-2.335,3.482c-0.295,1.629-0.433,3.377-0.402,5.086c-4.463-0.425-8.383,1.93-10.339,6.199
				c-1.458,3.586-1.245,6.748,0.602,8.91c1.324,1.547,3.429,2.436,5.774,2.436c0.72,0,1.448-0.086,2.164-0.252
				c3.294-0.777,5.857-3.156,6.9-6.395c1.295-0.414,2.389-0.908,3.381-1.525c0.166,0.789,0.32,2.006,0.41,2.766
				c-1.717,0.65-2.883,2.314-2.883,4.178c0,2.465,2.004,4.469,4.466,4.469c2.467,0,4.471-2.004,4.471-4.469
				c0-2.197-1.557-4.023-3.682-4.398c-0.107-0.879-0.396-2.967-0.773-4.104C41.471,204.707,44.014,202.27,45.282,198.07z
				 M36.696,205.686c-0.834,0.559-1.771,1.006-2.889,1.381c-0.933-1.48-1.585-3.299-1.939-5.423
				C33.863,202.485,35.577,203.92,36.696,205.686z M32.017,208.682c-0.784,2.439-2.709,4.229-5.18,4.812
				c-2.181,0.51-4.423-0.059-5.581-1.416c-1.234-1.443-1.31-3.732-0.216-6.423c1.425-3.096,3.934-4.799,7.067-4.799
				c0.405,0,0.818,0.03,1.237,0.087C29.701,203.957,30.62,206.621,32.017,208.682z"/>
			<path fill="#FFFFFF" d="M112.987,199.935c-0.028-5.034-3.035-5.579-4.333-5.579c-1.169,0-2.316,0.412-3.423,0.811
				c-0.919,0.331-1.863,0.671-2.526,0.671c-0.664,0-1.608-0.34-2.518-0.666c-1.116-0.403-2.26-0.815-3.432-0.815
				c-1.298,0-4.305,0.545-4.333,5.579c-0.304,4.46,1.314,11.298,4.232,14.438c1.425,1.539,2.869,1.861,3.828,1.861
				c1.029,0,1.737-0.359,2.223-0.916c0.486,0.557,1.194,0.916,2.223,0.916c0.958,0,2.403-0.322,3.831-1.861
				C111.672,211.232,113.291,204.395,112.987,199.935z M106.427,212.215c-0.489,0.533-0.972,0.814-1.428,0.844
				c-0.191-0.346-0.194-1.623-0.197-2.48c-0.002-2.225-0.008-4.994-2.099-4.994c-2.088,0-2.097,2.77-2.1,4.994
				c-0.003,0.857-0.005,2.135-0.197,2.48c-0.455-0.029-0.936-0.311-1.428-0.844c-2.043-2.201-3.69-8.102-3.386-12.14l0.002-0.048
				c0-2.498,0.753-2.498,1.158-2.498c0.613,0,1.456,0.303,2.35,0.623c0.447,0.164,0.924,0.332,1.411,0.479
				c0.882,0.373,3.033,1.134,5.891,0.989c0.433,0,0.779-0.281,0.779-0.627s-0.346-0.626-0.779-0.626
				c-0.239,0-0.464-0.004-0.683-0.008c0.196-0.068,0.393-0.138,0.584-0.207c0.891-0.32,1.734-0.623,2.347-0.623
				c0.405,0,1.161,0,1.161,2.498v0.048C110.118,204.113,108.471,210.014,106.427,212.215z"/>
			<path fill="#FFFFFF" d="M78.532,172.885c-0.256-0.307-1.259-1.906-1.45-2.341c-0.208-0.512-0.933-5.15-0.736-6.841
				c0.112-0.951,0.374-4.165-0.914-5.584c-0.483-0.531-1.11-0.814-1.815-0.814c-0.318,0-0.697,0.096-1.181,0.299
				c-1.686-2.217-2.591-2.773-4.345-2.773l-0.219,0.008c-0.27-0.024-0.587-0.244-0.922-0.479c-0.514-0.355-1.096-0.758-1.86-0.758
				c-0.323,0-0.652,0.074-0.928,0.203c-0.554,0.195-0.837,0.713-1.09,1.169c-0.16,0.287-0.337,0.612-0.559,0.702
				c-0.554,0.289-0.765,0.844-0.936,1.289c-0.073,0.199-0.144,0.387-0.228,0.499c-0.034,0.046-0.169,0.135-0.278,0.208
				c-0.486,0.317-1.298,0.852-1.369,2.355c-0.082,1.765,0.871,5.662,1.796,8.732c0.455,1.514,0.885,2.945,1.051,3.857
				c-0.014,0.223-0.489,0.953-0.804,1.438c-0.522,0.812-1.121,1.729-1.292,2.509c-0.36,1.606-0.25,3.241,0.3,4.483
				c0.644,1.455,1.816,2.29,3.21,2.29c0.817,0,2.068-0.311,3.519-1.719c0.141,0.188,0.267,0.4,0.396,0.621
				c0.262,0.433,0.554,0.923,1.003,1.298c0.236,0.195,0.526,0.3,0.837,0.3c0.621,0,1.265,0,5.424-5.126
				c0.584-0.721,1.183-1.391,1.782-2.061C78.509,174.879,79.38,173.904,78.532,172.885z M73.512,159.058
				c0.5-0.183,1.144,0.323,1.439,1.13c0.295,0.809,0.132,1.609-0.368,1.795C74.085,162.166,72.236,159.52,73.512,159.058z
				 M64.499,155.008c0.388-0.334,0.972-0.295,1.312,0.096c0.334,0.389,0.186,0.719-0.203,1.057c-0.388,0.336-0.868,0.547-1.206,0.16
				C64.066,155.93,64.111,155.342,64.499,155.008z M62.807,158.439c-0.248-0.475-0.062-1.061,0.41-1.309
				c0.475-0.248,1.062-0.063,1.31,0.412c0.248,0.475,0.014,0.775-0.461,1.022C63.591,158.812,63.057,158.912,62.807,158.439z
				 M69.189,174.633c-1.875-1.937-1.484-3.403-2.923-6.691c-1.284-2.938-2.535-5.781-2.661-6.029
				c-0.27-0.523,0.548-1.654,1.11-0.592c0.562,1.064,1.554,3.182,2.305,4.182c0.75,1.002,0.775,0.377,0.669-0.304
				c-0.107-0.677-2.395-5.138-2.833-6.013c-0.436-0.875,0.914-1.252,1.225-0.688c0.312,0.562,2.566,4.629,3.193,5.753
				c0.624,1.126,0.961,0.124,0.649-0.499c-0.312-0.625-3.128-5.818-3.628-6.727c-0.5-0.91,0.905-1.279,1.34-0.654
				c0.438,0.623,2.878,5.19,3.505,6.379c0.5,0.939,0.927,0.125,0.677-0.377c-0.25-0.498-2.001-3.689-2.563-4.939
				c-0.565-1.252,0.5-1.062,0.812-0.562s3.406,5.924,3.406,5.924c1.627,2.252,1.785,7.836,1.785,7.836S69.94,175.197,69.189,174.633
				z"/>
		</g>
	</g>
</g>
<g>
	<g>
		<path fill="#CDC8B1" d="M188.854,355.49l-1.046-5.707c-4.662,3.896-10.183,6.615-15.792,6.615c-7.518,0-13.51-3.627-13.51-11.326
			c0-9.516,7.607-14.59,29.107-16.492v-3.715c0-5.979-3.709-8.88-9.893-8.88c-5.137,0-10.367,1.358-15.314,3.807l-0.572-3.986
			c5.041-2.174,10.182-3.716,16.078-3.716c9.134,0,14.08,4.441,14.08,12.594v30.807H188.854z M187.614,332.113
			c-18.453,1.903-24.543,5.619-24.543,12.598c0,5.436,4.089,7.973,9.134,7.973c4.755,0,10.562-2.719,15.409-6.797V332.113z"/>
		<path fill="#CDC8B1" d="M263.818,355.49v-29.629c0-6.434-2.948-9.966-9.418-9.966c-4.758,0-9.797,2.63-15.412,7.521v32.074h-4.379
			v-29.629c0-6.434-2.945-9.966-9.418-9.966c-4.755,0-9.89,2.63-15.408,7.431v32.164h-4.474v-42.586h3.237l1.141,6.164
			c5.329-4.352,10.182-7.069,15.982-7.069c7.04,0,11.036,2.718,12.554,7.702c5.615-4.711,10.657-7.702,16.748-7.702
			c9.227,0,13.318,4.893,13.318,13.319v30.172H263.818z"/>
		<path fill="#CDC8B1" d="M314.812,334.197H283.23c0,10.875,5.324,18.486,15.312,18.486c5.424,0,11.132-2.719,15.508-6.525
			l0.666,3.988c-4.092,3.533-9.988,6.252-16.365,6.252c-11.792,0-19.688-8.338-19.688-22.201c0-13.59,8.18-22.198,19.025-22.198
			c11.413,0,17.124,9.517,17.124,21.292C314.812,333.564,314.812,333.837,314.812,334.197z M297.688,315.533
			c-8.468,0-13.223,6.252-14.269,15.131h26.635C309.77,322.327,305.487,315.533,297.688,315.533z"/>
		<path fill="#CDC8B1" d="M355.526,355.49v-29.629c0-6.434-3.23-9.966-9.602-9.966c-4.949,0-10.084,2.72-15.696,7.702v31.893h-4.475
			v-42.586h3.231l1.145,6.434c5.421-4.53,10.37-7.339,16.27-7.339c9.223,0,13.602,4.983,13.602,13.501v29.99H355.526z"/>
	</g>
	<g>
		<path fill="#CDC8B1" d="M173.005,385.291h-2.29l-1.254-2.979h-5.834l-1.271,2.979h-2.222l5.433-12.428h2.009L173.005,385.291z
			 M166.536,375.453l-2.116,4.938h4.249L166.536,375.453z"/>
		<path fill="#CDC8B1" d="M181.63,385.291v-1.551c-0.688,0.971-1.657,1.746-3.173,1.746c-2.187,0-4.319-1.746-4.319-4.85
			c0-3.105,2.097-4.848,4.319-4.848c1.531,0,2.502,0.773,3.173,1.639v-5.006h2.134v12.869H181.63z M178.969,377.639
			c-1.465,0-2.682,1.131-2.682,2.998c0,1.834,1.234,2.996,2.682,2.996c1.428,0,2.695-1.18,2.695-2.996
			C181.665,378.818,180.397,377.639,178.969,377.639z"/>
		<path fill="#CDC8B1" d="M193.042,375.982h2.239l-3.808,9.379h-1.923l-3.827-9.379h2.293l2.504,6.84L193.042,375.982z"/>
		<path fill="#CDC8B1" d="M201.048,383.758c1.04,0,1.778-0.389,2.521-1.111l1.251,1.111c-0.88,1.057-2.097,1.744-3.809,1.744
			c-2.697,0-4.777-1.955-4.777-4.848c0-2.682,1.886-4.865,4.55-4.865c2.963,0,4.46,2.324,4.46,5.023
			c0,0.193-0.017,0.371-0.036,0.582h-6.841C198.615,382.912,199.671,383.758,201.048,383.758z M203.127,379.982
			c-0.14-1.373-0.952-2.451-2.363-2.451c-1.304,0-2.22,1.008-2.414,2.451H203.127z"/>
		<path fill="#CDC8B1" d="M209.708,385.291h-2.134v-9.309h2.134v1.445c0.599-0.883,1.464-1.639,2.908-1.639
			c2.1,0,3.315,1.408,3.315,3.578v5.924h-2.132v-5.289c0-1.447-0.726-2.275-1.993-2.275c-1.233,0-2.099,0.865-2.099,2.311V385.291z"
			/>
		<path fill="#CDC8B1" d="M221.256,382.383c0,0.826,0.425,1.164,1.146,1.164c0.476,0,0.899-0.107,1.321-0.318v1.746
			c-0.528,0.297-1.127,0.475-1.922,0.475c-1.568,0-2.679-0.686-2.679-2.732v-4.9h-1.181v-1.834h1.181v-2.555h2.133v2.555h2.505
			v1.834h-2.505V382.383z"/>
		<path fill="#CDC8B1" d="M226.125,374.555v-2.027h2.293v2.027H226.125z M226.211,385.291v-9.309h2.136v9.309H226.211z"/>
		<path fill="#CDC8B1" d="M234.502,385.467c-1.324,0-2.788-0.477-3.951-1.393l0.952-1.447c1.006,0.76,2.1,1.146,3.05,1.146
			c0.919,0,1.447-0.387,1.447-1.002v-0.037c0-0.723-0.989-0.969-2.08-1.305c-1.377-0.387-2.911-0.953-2.911-2.734v-0.033
			c0-1.762,1.464-2.838,3.316-2.838c1.163,0,2.434,0.404,3.42,1.057l-0.846,1.518c-0.899-0.549-1.853-0.883-2.628-0.883
			c-0.829,0-1.304,0.387-1.304,0.936v0.033c0,0.672,1.003,0.953,2.096,1.305c1.357,0.424,2.893,1.043,2.893,2.717v0.035
			C237.957,384.496,236.442,385.467,234.502,385.467z"/>
		<path fill="#CDC8B1" d="M242.701,382.383c0,0.826,0.424,1.164,1.146,1.164c0.478,0,0.899-0.107,1.323-0.318v1.746
			c-0.528,0.297-1.13,0.475-1.922,0.475c-1.568,0-2.682-0.686-2.682-2.732v-4.9h-1.18v-1.834h1.18v-2.555h2.134v2.555h2.504v1.834
			h-2.504V382.383z"/>
		<path fill="#CDC8B1" d="M259.313,382.26h-0.07l-3.861-5.785v8.816h-2.134v-12.342h2.311l3.755,5.836l3.755-5.836h2.31v12.342
			h-2.169v-8.852L259.313,382.26z"/>
		<path fill="#CDC8B1" d="M272.787,383.758c1.039,0,1.781-0.389,2.521-1.111l1.254,1.111c-0.883,1.057-2.1,1.744-3.809,1.744
			c-2.698,0-4.777-1.955-4.777-4.848c0-2.682,1.886-4.865,4.547-4.865c2.962,0,4.46,2.324,4.46,5.023
			c0,0.193-0.017,0.371-0.033,0.582h-6.841C270.355,382.912,271.412,383.758,272.787,383.758z M274.869,379.982
			c-0.144-1.373-0.952-2.451-2.363-2.451c-1.305,0-2.224,1.008-2.417,2.451H274.869z"/>
		<path fill="#CDC8B1" d="M286.329,385.291v-1.551c-0.688,0.971-1.658,1.746-3.172,1.746c-2.187,0-4.319-1.746-4.319-4.85
			c0-3.105,2.097-4.848,4.319-4.848c1.53,0,2.5,0.773,3.172,1.639v-5.006h2.133v12.869H286.329z M283.667,377.639
			c-1.463,0-2.68,1.131-2.68,2.998c0,1.834,1.234,2.996,2.68,2.996c1.428,0,2.695-1.18,2.695-2.996
			C286.362,378.818,285.094,377.639,283.667,377.639z"/>
		<path fill="#CDC8B1" d="M291.339,374.555v-2.027h2.291v2.027H291.339z M291.426,385.291v-9.309h2.134v9.309H291.426z"/>
		<path fill="#CDC8B1" d="M300.825,385.502c-2.769,0-4.812-2.17-4.812-4.83c0-2.662,2.043-4.883,4.831-4.883
			c1.763,0,2.855,0.65,3.719,1.604l-1.321,1.426c-0.652-0.686-1.341-1.162-2.417-1.162c-1.552,0-2.679,1.34-2.679,2.98
			c0,1.676,1.145,3.014,2.785,3.014c1.004,0,1.745-0.475,2.414-1.164l1.288,1.271C303.716,384.781,302.64,385.502,300.825,385.502z"
			/>
		<path fill="#CDC8B1" d="M312.465,385.291v-1.146c-0.635,0.76-1.604,1.342-3.016,1.342c-1.762,0-3.313-1.006-3.313-2.875v-0.035
			c0-2.012,1.604-2.998,3.771-2.998c1.13,0,1.853,0.16,2.574,0.389v-0.229c0-1.287-0.809-1.992-2.29-1.992
			c-1.043,0-1.818,0.227-2.664,0.582l-0.582-1.713c1.023-0.457,2.029-0.773,3.544-0.773c2.751,0,4.092,1.445,4.092,3.93v5.52
			H312.465z M312.519,381.34c-0.548-0.211-1.307-0.367-2.133-0.367c-1.341,0-2.134,0.545-2.134,1.498v0.035
			c0,0.881,0.793,1.375,1.796,1.375c1.411,0,2.471-0.793,2.471-1.955V381.34z"/>
		<path fill="#CDC8B1" d="M317.42,385.291v-12.869h2.136v12.869H317.42z"/>
		<path fill="#CDC8B1" d="M170.344,392.568h-6.984v3.209h6.189v1.939h-6.189v3.314h7.071v1.938h-9.237v-12.34h9.15V392.568z"/>
		<path fill="#CDC8B1" d="M179.197,393.662h2.24l-3.809,9.377h-1.922l-3.825-9.377h2.291l2.504,6.84L179.197,393.662z"/>
		<path fill="#CDC8B1" d="M188.685,402.969v-1.146c-0.636,0.76-1.604,1.342-3.016,1.342c-1.763,0-3.313-1.004-3.313-2.873v-0.037
			c0-2.008,1.604-2.996,3.771-2.996c1.13,0,1.853,0.158,2.574,0.389v-0.23c0-1.287-0.81-1.992-2.29-1.992
			c-1.043,0-1.818,0.23-2.665,0.582l-0.581-1.709c1.022-0.459,2.029-0.775,3.544-0.775c2.751,0,4.092,1.443,4.092,3.932v5.516
			H188.685z M188.739,399.021c-0.549-0.211-1.308-0.371-2.134-0.371c-1.341,0-2.133,0.547-2.133,1.498v0.035
			c0,0.883,0.792,1.375,1.796,1.375c1.411,0,2.471-0.793,2.471-1.955V399.021z"/>
		<path fill="#CDC8B1" d="M195.652,402.969h-2.133v-9.307h2.133v1.443c0.599-0.879,1.465-1.639,2.909-1.639
			c2.1,0,3.316,1.412,3.316,3.578v5.924h-2.134v-5.289c0-1.443-0.725-2.273-1.992-2.273c-1.233,0-2.1,0.863-2.1,2.311V402.969z"/>
		<path fill="#CDC8B1" d="M208.771,405.828c-1.531,0-2.962-0.389-4.159-1.113l0.793-1.605c0.986,0.619,2.046,0.99,3.313,0.99
			c1.905,0,2.945-0.99,2.945-2.859v-0.721c-0.776,1.006-1.746,1.711-3.28,1.711c-2.187,0-4.229-1.605-4.229-4.373
			s2.062-4.391,4.229-4.391c1.571,0,2.541,0.723,3.263,1.586v-1.391h2.134v7.404C213.78,404.363,211.981,405.828,208.771,405.828z
			 M208.949,395.266c-1.481,0-2.646,1.023-2.646,2.574c0,1.553,1.181,2.592,2.646,2.592c1.48,0,2.731-1.039,2.731-2.574
			C211.68,396.289,210.429,395.266,208.949,395.266z"/>
		<path fill="#CDC8B1" d="M220.922,401.436c1.04,0,1.779-0.389,2.521-1.111l1.251,1.111c-0.88,1.059-2.097,1.748-3.809,1.748
			c-2.697,0-4.777-1.959-4.777-4.852c0-2.678,1.886-4.865,4.55-4.865c2.963,0,4.461,2.328,4.461,5.025
			c0,0.193-0.018,0.371-0.037,0.582h-6.841C218.489,400.59,219.545,401.436,220.922,401.436z M223.001,397.664
			c-0.14-1.375-0.952-2.451-2.363-2.451c-1.304,0-2.22,1.006-2.414,2.451H223.001z"/>
		<path fill="#CDC8B1" d="M227.572,402.969V390.1h2.133v12.869H227.572z"/>
		<path fill="#CDC8B1" d="M232.704,392.234v-2.029h2.29v2.029H232.704z M232.791,402.969v-9.307h2.134v9.307H232.791z"/>
		<path fill="#CDC8B1" d="M241.079,403.146c-1.32,0-2.785-0.475-3.948-1.395l0.952-1.443c1.004,0.758,2.097,1.146,3.05,1.146
			c0.916,0,1.444-0.389,1.444-1.006v-0.035c0-0.725-0.986-0.969-2.08-1.307c-1.374-0.387-2.908-0.949-2.908-2.73v-0.037
			c0-1.762,1.464-2.838,3.313-2.838c1.163,0,2.434,0.406,3.42,1.059l-0.846,1.516c-0.899-0.547-1.85-0.881-2.628-0.881
			c-0.826,0-1.304,0.389-1.304,0.934v0.037c0,0.668,1.006,0.949,2.1,1.303c1.357,0.422,2.892,1.041,2.892,2.715v0.037
			C244.536,402.178,243.018,403.146,241.079,403.146z"/>
		<path fill="#CDC8B1" d="M257.779,393.467c2.026,0,3.263,1.287,3.263,3.561v5.941h-2.133v-5.289c0-1.48-0.689-2.273-1.889-2.273
			c-1.164,0-1.993,0.812-1.993,2.311v5.252h-2.133v-5.305c0-1.445-0.706-2.258-1.886-2.258c-1.181,0-1.993,0.883-1.993,2.328v5.234
			h-2.133v-9.307h2.133v1.41c0.599-0.83,1.411-1.605,2.839-1.605c1.341,0,2.273,0.652,2.769,1.639
			C255.381,394.119,256.368,393.467,257.779,393.467z"/>
		<path fill="#CDC8B1" d="M278.149,390.629h2.133v12.34h-1.818l-6.804-8.779v8.779h-2.134v-12.34h2.01l6.613,8.533V390.629z"/>
		<path fill="#CDC8B1" d="M287.689,401.436c1.039,0,1.778-0.389,2.521-1.111l1.251,1.111c-0.88,1.059-2.097,1.748-3.809,1.748
			c-2.698,0-4.776-1.959-4.776-4.852c0-2.678,1.885-4.865,4.549-4.865c2.962,0,4.46,2.328,4.46,5.025
			c0,0.193-0.017,0.371-0.036,0.582h-6.841C285.254,400.59,286.311,401.436,287.689,401.436z M289.768,397.664
			c-0.141-1.375-0.952-2.451-2.363-2.451c-1.304,0-2.221,1.006-2.414,2.451H289.768z"/>
		<path fill="#CDC8B1" d="M296.786,400.061c0,0.83,0.425,1.164,1.147,1.164c0.478,0,0.899-0.104,1.323-0.318v1.746
			c-0.528,0.301-1.13,0.477-1.922,0.477c-1.568,0-2.682-0.688-2.682-2.734v-4.9h-1.181v-1.832h1.181v-2.559h2.133v2.559h2.505v1.832
			h-2.505V400.061z"/>
		<path fill="#CDC8B1" d="M310.858,400.043l1.905-6.381h2.134l-3.05,9.377h-1.905l-2.08-6.361l-2.1,6.361h-1.902l-3.016-9.377h2.187
			l1.869,6.381l2.062-6.418h1.815L310.858,400.043z"/>
		<path fill="#CDC8B1" d="M320.964,403.184c-2.839,0-4.936-2.17-4.936-4.832c0-2.682,2.114-4.885,4.972-4.885
			c2.855,0,4.955,2.168,4.955,4.848C325.956,400.977,323.839,403.184,320.964,403.184z M320.964,395.336
			c-1.709,0-2.802,1.342-2.802,2.979c0,1.658,1.18,3.016,2.838,3.016c1.729,0,2.819-1.34,2.819-2.979
			C323.82,396.693,322.639,395.336,320.964,395.336z"/>
		<path fill="#CDC8B1" d="M330.436,402.969h-2.134v-9.307h2.134v2.096c0.581-1.391,1.657-2.344,3.296-2.273v2.256h-0.123
			c-1.869,0-3.173,1.217-3.173,3.686V402.969z"/>
		<path fill="#CDC8B1" d="M344.474,402.969h-2.471l-2.802-4.018l-1.305,1.357v2.66h-2.133V390.1h2.133v7.688l3.862-4.125h2.591
			l-3.704,3.791L344.474,402.969z"/>
	</g>
	<g>
		<g>
			<path fill="#CDC8B1" d="M132.949,332.627l-56.292-56.293c-2.245-2.248-5.244-3.482-8.437-3.482c-3.196,0-6.191,1.234-8.437,3.482
				L3.488,332.627c-4.651,4.65-4.651,12.223,0,16.873l56.295,56.293c2.246,2.246,5.241,3.484,8.437,3.484
				c3.192,0,6.191-1.238,8.437-3.484l56.292-56.293c2.249-2.244,3.485-5.242,3.485-8.436
				C136.434,337.868,135.198,334.873,132.949,332.627z M130.138,346.689l-56.292,56.295c-1.495,1.494-3.494,2.318-5.626,2.318
				c-2.133,0-4.131-0.824-5.627-2.318L6.299,346.689c-3.103-3.102-3.103-8.149,0-11.252l56.294-56.293
				c1.496-1.496,3.494-2.319,5.627-2.319c2.133,0,4.131,0.823,5.626,2.319l56.292,56.293c1.495,1.495,2.319,3.493,2.319,5.627
				C132.458,343.197,131.633,345.195,130.138,346.689z"/>
			<path fill="#CDC8B1" d="M99.109,310.175c-0.775-0.776-2.035-0.776-2.811,0L68.22,338.254l-28.079-28.08
				c-0.776-0.775-2.035-0.775-2.811,0c-0.776,0.777-0.776,2.034,0,2.811l28.079,28.08l-28.079,28.078
				c-0.776,0.775-0.776,2.035,0,2.811c0.388,0.389,0.896,0.582,1.405,0.582s1.018-0.193,1.405-0.582l28.079-28.078l28.078,28.078
				c0.388,0.389,0.896,0.582,1.405,0.582s1.018-0.193,1.405-0.582c0.776-0.775,0.776-2.035,0-2.811L71.03,341.064l28.079-28.079
				C99.885,312.209,99.885,310.951,99.109,310.175z"/>
		</g>
		<g>
			<path fill="#CDC8B1" d="M68.633,363.896c-6.312,0-11.43,5.119-11.43,11.432s5.117,11.432,11.43,11.432
				c6.312,0,11.433-5.119,11.433-11.432S74.945,363.896,68.633,363.896z M74.993,377.58c0,0.396,0.382,1.67,0.896,2.24
				c-1.512,2.428-4.196,4.053-7.256,4.053c-1.875,0-3.609-0.607-5.017-1.637c0.124-0.16,0.146-0.426,0.112-0.748
				c-0.144-1.422-0.928-3.184-1.903-4.264c-0.41-0.455-1.045-0.707-1.678-0.891c-0.04-0.33-0.062-0.666-0.062-1.006
				c0-2.986,1.543-5.617,3.867-7.146c-0.098,0.445-0.157,0.629,0.256,0.959c0.843,0.672,0.877,1.627,0.93,2.631
				c0.037,0.689,1.026,1.332,1.546,1.68c0.309,0.203,0.388-0.588,0.722-0.562c0.542,0.035,1.045,0.047,1.549,0.277
				c-0.869,1.102,0.719,2.932,0.719,4.1c0,0.455-1.197,1.92-0.857,2.088c0.7,0.35,1.211-0.238,1.585-0.84
				c0.706-1.141,2.445-2.309,1.961-3.758c-0.61-1.822-2.889-0.869-3.409-2.525c0.745-0.174,1.489-0.35,2.234-0.523
				c0.518-0.123,0.891-0.873,1.22-1.273c0.087-0.242,0.096-0.539,0.144-0.791c-0.374-0.062-0.925-0.275-1.295-0.217
				c-0.456,0.072-0.919,0.777-1.439,0.65c-0.171-0.045,0.688-1.625,0.649-1.801c-0.202-0.93-2.316-1.172-3.091-0.936
				c-0.79,0.242-0.824,0.934-1.642,0.412c-0.166-0.105-0.284-0.215-0.379-0.314c1.009-0.42,2.117-0.656,3.277-0.656
				c3.906,0,7.2,2.641,8.215,6.225c-0.208,0.559-0.599,0.99-0.944,1.479c-0.259,0.363-0.725,0.793-0.896,1.191
				C74.793,376.174,74.993,377.031,74.993,377.58z"/>
			<path fill="#CDC8B1" d="M45.282,334.496c0.837-3.244,0.571-5.393-0.818-6.572c-0.857-0.725-2.071-0.961-3.519-0.697
				c-0.32-0.227-0.7-0.349-1.093-0.349c-1.051,0-1.903,0.854-1.903,1.905s0.852,1.906,1.903,1.906c0.776,0,1.456-0.463,1.751-1.158
				c0.599-0.079,1.062-0.003,1.321,0.217c0.576,0.488,0.596,2.034,0.056,4.118c-0.983,3.259-2.875,5.171-4.452,6.696
				c-1.616-2.409-4.101-4.25-6.928-5.128c-0.076-1.741,0.042-3.557,0.332-5.147c0.168-0.925,0.478-1.537,0.849-1.681
				c0.177-0.071,0.433-0.062,0.734,0.025c0.171,0.874,0.947,1.538,1.869,1.538c1.051,0,1.906-0.855,1.906-1.903
				c0-1.052-0.854-1.905-1.906-1.905c-0.244,0-0.483,0.047-0.714,0.143c-0.989-0.392-1.931-0.438-2.749-0.125
				c-1.214,0.471-1.998,1.642-2.335,3.482c-0.295,1.629-0.433,3.377-0.402,5.086c-4.463-0.425-8.383,1.93-10.339,6.199
				c-1.458,3.586-1.245,6.748,0.602,8.91c1.324,1.547,3.429,2.436,5.774,2.436c0.72,0,1.448-0.086,2.164-0.252
				c3.294-0.777,5.857-3.156,6.9-6.395c1.295-0.414,2.389-0.908,3.381-1.525c0.166,0.789,0.32,2.006,0.41,2.766
				c-1.717,0.65-2.883,2.314-2.883,4.178c0,2.465,2.004,4.469,4.466,4.469c2.467,0,4.471-2.004,4.471-4.469
				c0-2.197-1.557-4.023-3.682-4.398c-0.107-0.879-0.396-2.967-0.773-4.104C41.471,341.133,44.014,338.695,45.282,334.496z
				 M36.696,342.111c-0.834,0.559-1.771,1.006-2.889,1.381c-0.933-1.48-1.585-3.299-1.939-5.423
				C33.863,338.911,35.577,340.346,36.696,342.111z M32.017,345.107c-0.784,2.439-2.709,4.229-5.18,4.812
				c-2.181,0.51-4.423-0.059-5.581-1.416c-1.234-1.443-1.31-3.732-0.216-6.423c1.425-3.096,3.934-4.799,7.067-4.799
				c0.405,0,0.818,0.03,1.237,0.087C29.701,340.383,30.62,343.047,32.017,345.107z"/>
			<path fill="#CDC8B1" d="M112.987,336.36c-0.028-5.034-3.035-5.579-4.333-5.579c-1.169,0-2.316,0.412-3.423,0.811
				c-0.919,0.331-1.863,0.671-2.526,0.671c-0.664,0-1.608-0.34-2.518-0.666c-1.116-0.403-2.26-0.815-3.432-0.815
				c-1.298,0-4.305,0.545-4.333,5.579c-0.304,4.46,1.314,11.298,4.232,14.438c1.425,1.539,2.869,1.861,3.828,1.861
				c1.029,0,1.737-0.359,2.223-0.916c0.486,0.557,1.194,0.916,2.223,0.916c0.958,0,2.403-0.322,3.831-1.861
				C111.672,347.658,113.291,340.82,112.987,336.36z M106.427,348.641c-0.489,0.533-0.972,0.814-1.428,0.844
				c-0.191-0.346-0.194-1.623-0.197-2.48c-0.002-2.225-0.008-4.994-2.099-4.994c-2.088,0-2.097,2.77-2.1,4.994
				c-0.003,0.857-0.005,2.135-0.197,2.48c-0.455-0.029-0.936-0.311-1.428-0.844c-2.043-2.201-3.69-8.102-3.386-12.14l0.002-0.048
				c0-2.498,0.753-2.498,1.158-2.498c0.613,0,1.456,0.303,2.35,0.623c0.447,0.164,0.924,0.332,1.411,0.479
				c0.882,0.373,3.033,1.134,5.891,0.989c0.433,0,0.779-0.281,0.779-0.627s-0.346-0.626-0.779-0.626
				c-0.239,0-0.464-0.004-0.683-0.008c0.196-0.068,0.393-0.138,0.584-0.207c0.891-0.32,1.734-0.623,2.347-0.623
				c0.405,0,1.161,0,1.161,2.498v0.048C110.118,340.539,108.471,346.439,106.427,348.641z"/>
			<path fill="#CDC8B1" d="M78.532,309.311c-0.256-0.307-1.259-1.906-1.45-2.341c-0.208-0.512-0.933-5.15-0.736-6.841
				c0.112-0.951,0.374-4.165-0.914-5.584c-0.483-0.531-1.11-0.814-1.815-0.814c-0.318,0-0.697,0.096-1.181,0.299
				c-1.686-2.217-2.591-2.773-4.345-2.773l-0.219,0.008c-0.27-0.024-0.587-0.244-0.922-0.479c-0.514-0.355-1.096-0.758-1.86-0.758
				c-0.323,0-0.652,0.074-0.928,0.203c-0.554,0.195-0.837,0.713-1.09,1.169c-0.16,0.287-0.337,0.612-0.559,0.702
				c-0.554,0.289-0.765,0.844-0.936,1.289c-0.073,0.199-0.144,0.387-0.228,0.499c-0.034,0.046-0.169,0.135-0.278,0.208
				c-0.486,0.317-1.298,0.852-1.369,2.355c-0.082,1.765,0.871,5.662,1.796,8.732c0.455,1.514,0.885,2.945,1.051,3.857
				c-0.014,0.223-0.489,0.953-0.804,1.438c-0.522,0.812-1.121,1.729-1.292,2.509c-0.36,1.606-0.25,3.241,0.3,4.483
				c0.644,1.455,1.816,2.29,3.21,2.29c0.817,0,2.068-0.311,3.519-1.719c0.141,0.188,0.267,0.4,0.396,0.621
				c0.262,0.433,0.554,0.923,1.003,1.298c0.236,0.195,0.526,0.3,0.837,0.3c0.621,0,1.265,0,5.424-5.126
				c0.584-0.721,1.183-1.391,1.782-2.061C78.509,311.305,79.38,310.33,78.532,309.311z M73.512,295.483
				c0.5-0.183,1.144,0.323,1.439,1.13c0.295,0.809,0.132,1.609-0.368,1.795C74.085,298.592,72.236,295.945,73.512,295.483z
				 M64.499,291.434c0.388-0.334,0.972-0.295,1.312,0.096c0.334,0.389,0.186,0.719-0.203,1.057c-0.388,0.336-0.868,0.547-1.206,0.16
				C64.066,292.355,64.111,291.768,64.499,291.434z M62.807,294.865c-0.248-0.475-0.062-1.061,0.41-1.309
				c0.475-0.248,1.062-0.063,1.31,0.412c0.248,0.475,0.014,0.775-0.461,1.022C63.591,295.238,63.057,295.338,62.807,294.865z
				 M69.189,311.059c-1.875-1.937-1.484-3.403-2.923-6.691c-1.284-2.938-2.535-5.781-2.661-6.029
				c-0.27-0.523,0.548-1.654,1.11-0.592c0.562,1.064,1.554,3.182,2.305,4.182c0.75,1.002,0.775,0.377,0.669-0.304
				c-0.107-0.677-2.395-5.138-2.833-6.013c-0.436-0.875,0.914-1.252,1.225-0.688c0.312,0.562,2.566,4.629,3.193,5.753
				c0.624,1.126,0.961,0.124,0.649-0.499c-0.312-0.625-3.128-5.818-3.628-6.727c-0.5-0.91,0.905-1.279,1.34-0.654
				c0.438,0.623,2.878,5.19,3.505,6.379c0.5,0.939,0.927,0.125,0.677-0.377c-0.25-0.498-2.001-3.689-2.563-4.939
				c-0.565-1.252,0.5-1.062,0.812-0.562s3.406,5.924,3.406,5.924c1.627,2.252,1.785,7.836,1.785,7.836S69.94,311.623,69.189,311.059
				z"/>
		</g>
	</g>
</g>
</svg>
